Division,WeightClassKg,Place,Name,Team,BodyweightKg,Best3SquatKg,Best3BenchKg,Best3DeadliftKg,TotalKg,Equipment,Event,Sex,BirthDate
Boys,51.71,1,Dray Renfrow,Bridge City,43.64,74.84,47.63,102.06,224.53,Single-ply,SBD,M,
Boys,55.79,1,Colten Gross,Bridge City,53.34,90.72,49.9,133.81,274.42,Single-ply,SBD,M,
Boys,59.87,1,Brady Bearden,Port Neches-Groves,58.01,174.63,122.47,181.44,478.54,Single-ply,SBD,M,
Boys,59.87,2,Raymon Castaneda,Port Neches-Groves,56.52,147.42,92.99,158.76,399.16,Single-ply,SBD,M,
Boys,59.87,DQ,James Hawkins,Bridge City,59.38,102.06,,,,Single-ply,SBD,M,
Boys,67.13,1,Manuel Odgen,Port Neches-Groves,66.77,151.95,102.06,163.29,417.3,Single-ply,SBD,M,
Boys,67.13,2,Miguel Velez,League City Clear Creek,60.87,154.22,83.91,158.76,396.89,Single-ply,SBD,M,
Boys,67.13,3,Cayden Payne,Port Neches-Groves,62.19,149.69,95.25,142.88,387.82,Single-ply,SBD,M,
Boys,67.13,DQ,Aden Lapeyrolerie,Bridge City,66.27,,,,,Single-ply,SBD,M,
Boys,74.84,1,Jonathan Martin,Beaumont United,72.98,226.8,129.27,233.6,589.67,Single-ply,SBD,M,
Boys,74.84,2,Landen Gunter,League City Clear Creek,71.12,188.24,120.2,183.7,492.15,Single-ply,SBD,M,
Boys,74.84,3,Bryan Hernandez,Port Neches-Groves,74.39,183.7,106.59,190.51,480.81,Single-ply,SBD,M,
Boys,74.84,4,Autrey Nichols,Port Neches-Groves,74.25,174.63,120.2,170.1,464.93,Single-ply,SBD,M,
Boys,74.84,5,Bryce Weaver,League City Clear Creek,74.34,170.1,111.13,172.37,453.59,Single-ply,SBD,M,
Boys,74.84,6,Daniel Alonzo,Port Neches-Groves,72.57,136.08,79.38,145.15,360.61,Single-ply,SBD,M,
Boys,74.84,DQ,Garrett Hicks,Port Neches-Groves,70.85,142.88,,,,Single-ply,SBD,M,
Boys,82.1,1,Mario Martin,Bridge City,79.02,204.12,133.81,201.85,539.77,Single-ply,SBD,M,
Boys,82.1,2,Caleb James,Kountze,78.11,165.56,99.79,201.85,467.2,Single-ply,SBD,M,
Boys,82.1,3,Dauson Venable,Kountze,77.29,165.56,92.99,188.24,446.79,Single-ply,SBD,M,
Boys,82.1,4,Cedric Madison,Beaumont United,79.06,149.69,88.45,158.76,396.89,Single-ply,SBD,M,
Boys,82.1,DQ,Korleone Comeaux,Beaumont United,80.92,185.97,120.2,,,Single-ply,SBD,M,
Boys,82.1,DQ,Trenton Bruno,Kountze,79.74,,,,,Single-ply,SBD,M,
Boys,82.1,DQ,Eric Steil,Port Neches-Groves,81.24,226.8,113.4,,,Single-ply,SBD,M,
Boys,82.1,DQ,Mikail Molley,Bridge City,78.15,120.2,,,,Single-ply,SBD,M,
Boys,89.81,1,Robert Perez,Kountze,89.58,231.33,138.35,215.46,585.13,Single-ply,SBD,M,
Boys,89.81,2,Ryan Araujo,Port Neches-Groves,87.04,181.44,113.4,181.44,476.27,Single-ply,SBD,M,
Boys,89.81,3,Angel Raya,Kountze,85,147.42,92.99,165.56,405.97,Single-ply,SBD,M,
Boys,99.79,1,Dawson Williford,Kountze,99.06,165.56,106.59,208.65,480.81,Single-ply,SBD,M,
Boys,99.79,2,Philip Boykin,Kountze,94.17,165.56,113.4,197.31,476.27,Single-ply,SBD,M,
Boys,99.79,3,Mason Pruett,Bridge City,95.53,176.9,106.59,190.51,474,Single-ply,SBD,M,
Boys,99.79,4,Caiden Hernandez,League City Clear Creek,91.35,142.88,102.06,163.29,408.23,Single-ply,SBD,M,
Boys,99.79,5,Raegan Graves,Bridge City,96.03,149.69,72.57,154.22,376.48,Single-ply,SBD,M,
Boys,109.77,1,Athean Renfro,Beaumont United,103.46,240.4,142.88,231.33,614.62,Single-ply,SBD,M,
Boys,109.77,2,Jorge Herrera,Port Neches-Groves,106.55,204.12,115.67,226.8,546.58,Single-ply,SBD,M,
Boys,109.77,3,Aaron Raya,League City Clear Creek,101.74,195.04,111.13,204.12,510.29,Single-ply,SBD,M,
Boys,109.77,4,Dj Landry,Bridge City,104.87,192.78,106.59,158.76,458.13,Single-ply,SBD,M,
Boys,109.77,5,Juan Rojas,Bridge City,109.63,131.54,106.59,183.7,421.84,Single-ply,SBD,M,
Boys,109.77,6,Chase Osbourne,League City Clear Creek,108.09,124.74,102.06,149.69,376.48,Single-ply,SBD,M,
Boys,124.74,1,Christian Gladney,Beaumont United,122.83,254.01,158.76,226.8,639.57,Single-ply,SBD,M,
Boys,124.74,2,Treyvon Mims,Beaumont United,116.98,240.4,154.22,226.8,621.42,Single-ply,SBD,M,
Boys,124.74,3,Jonathan Cowart,Kountze,115.76,226.8,117.93,242.67,587.4,Single-ply,SBD,M,
Boys,124.74,4,Nicholas Lejeune,Bridge City,118.25,226.8,131.54,219.99,578.33,Single-ply,SBD,M,
Boys,124.74,5,Campbell Melcher,League City Clear Creek,119.02,197.31,120.2,197.31,514.83,Single-ply,SBD,M,
Boys,124.74,6,Josiah Dawsey,League City Clear Creek,115.12,188.24,124.74,192.78,505.76,Single-ply,SBD,M,
Boys,124.74,7,Justin Harmon,Beaumont United,114.58,136.08,83.91,133.81,353.8,Single-ply,SBD,M,
Boys,124.74,DQ,Gailin Curl,Beaumont United,121.79,,,,,Single-ply,SBD,M,
Boys,139.71,1,Luke Ener,Kountze,126.55,195.04,133.81,190.51,519.36,Single-ply,SBD,M,
Boys,139.71,2,Edward Taylor,Beaumont United,127.28,158.76,92.99,163.29,415.04,Single-ply,SBD,M,
Boys,139.71+,1,Micah Liedy,Beaumont United,162.98,263.08,127.01,217.72,607.81,Single-ply,SBD,M,
Boys,139.71+,2,Guy Curl,Beaumont United,177.58,254.01,117.93,204.12,576.06,Single-ply,SBD,M,
Boys,139.71+,3,David Cowart,Kountze,140.98,206.38,158.76,204.12,569.26,Single-ply,SBD,M,
Boys,,NS,Bryan Ermshar,League City Clear Creek,,,,,,Single-ply,SBD,M,
Boys,,NS,Eddie Monroe,Beaumont United,,,,,,Single-ply,SBD,M,
Boys,,NS,Zack Dommert,Bridge City,,,,,,Single-ply,SBD,M,
Boys,,NS,Rocky Ketchum,League City Clear Creek,,,,,,Single-ply,SBD,M,
Boys,,NS,Kennedy Pelico,League City Clear Creek,,,,,,Single-ply,SBD,M,
Boys,,NS,Daniel Hernandez,League City Clear Creek,,,,,,Single-ply,SBD,M,
Boys,,NS,Cameron Steil,Port Neches-Groves,,,,,,Single-ply,SBD,M,
Boys,,NS,Caleb Belanger,Port Neches-Groves,,,,,,Single-ply,SBD,M,
Boys,,NS,Mason Droddy,Port Neches-Groves,,,,,,Single-ply,SBD,M,
