Division,WeightClassKg,Place,Name,Team,BodyweightKg,Best3SquatKg,Best3BenchKg,Best3DeadliftKg,TotalKg,Equipment,Event,Sex,BirthDate
Boys,51.71,1,Jesse Ribble,Daingerfield,51.26,149.69,79.38,140.61,369.68,Single-ply,SBD,M,
Boys,51.71,2,Jacob Bahm,Scurry-Rosser,50.62,97.52,56.7,115.67,269.89,Single-ply,SBD,M,
Boys,51.71,3,Gavin Cruise,Simms Bowie,48.72,79.38,54.43,90.72,224.53,Single-ply,SBD,M,
Boys,51.71,4,James Day,Simms Bowie,43.73,79.38,36.29,88.45,204.12,Single-ply,SBD,M,
Boys,51.71,DQ,Landon Caudle,Maud,46.72,,,,,Single-ply,SBD,M,
Boys,55.79,1,Jace Lindsay,Beckville,55.52,145.15,81.65,167.83,394.63,Single-ply,SBD,M,
Boys,55.79,2,Kadin Daniels,Maud,55.7,140.61,81.65,156.49,378.75,Single-ply,SBD,M,
Boys,55.79,3,Shmar Garrett,Carthage,55.16,138.35,86.18,151.95,376.48,Single-ply,SBD,M,
Boys,55.79,4,Jared Bickham,Maud,55.66,124.74,58.97,122.47,306.17,Single-ply,SBD,M,
Boys,55.79,5,James Toal,Waskom,55.79,117.93,58.97,124.74,301.64,Single-ply,SBD,M,
Boys,55.79,6,Daniel Dunn,Gilmer Union Hill,55.79,90.72,45.36,113.4,249.48,Single-ply,SBD,M,
Boys,59.87,1,Malik Brasher,Jefferson,58.88,151.95,83.91,174.63,410.5,Single-ply,SBD,M,
Boys,59.87,2,Elijah Webster,Queen City,57.97,151.95,77.11,158.76,387.82,Single-ply,SBD,M,
Boys,59.87,3,Karson Bynum,Linden-Kildare,59.87,147.42,83.91,142.88,374.21,Single-ply,SBD,M,
Boys,59.87,4,Gavin Rhea,Simms Bowie,58.33,136.08,81.65,142.88,360.61,Single-ply,SBD,M,
Boys,59.87,5,Michael Lane,Linden-Kildare,56.15,113.4,63.5,124.74,301.64,Single-ply,SBD,M,
Boys,59.87,6,Jason Mullins,Detroit,58.69,117.93,70.31,108.86,297.1,Single-ply,SBD,M,
Boys,59.87,7,Jack Morris,Omaha Pewitt,56.97,99.79,56.7,124.74,281.23,Single-ply,SBD,M,
Boys,59.87,8,Samual Harmon,Simms Bowie,59.69,108.86,45.36,106.59,260.82,Single-ply,SBD,M,
Boys,59.87,9,Jason Guy,Pittsburg,59.6,79.38,43.09,81.65,204.12,Single-ply,SBD,M,
Boys,67.13,1,Claude Scales,Detroit,66.86,156.49,88.45,188.24,433.18,Single-ply,SBD,M,
Boys,67.13,2,Brent White,Linden-Kildare,67.13,158.76,79.38,185.97,424.11,Single-ply,SBD,M,
Boys,67.13,3,DeAndre Doss,Diana New Diana,66.04,158.76,81.65,158.76,399.16,Single-ply,SBD,M,
Boys,67.13,4,Jayke Bass,Gilmer Union Hill,65.5,156.49,95.25,142.88,394.63,Single-ply,SBD,M,
Boys,67.13,5,Kamren Stiger,Hooks,66.41,124.74,61.23,142.88,328.85,Single-ply,SBD,M,
Boys,67.13,6,Hunter Camarillo,Linden-Kildare,66.22,102.06,68.04,156.49,326.59,Single-ply,SBD,M,
Boys,67.13,7,Trey Stevenson,Waskom,60.96,113.4,65.77,129.27,308.44,Single-ply,SBD,M,
Boys,67.13,8,Tristan Carathers,Hooks,63.14,104.33,65.77,115.67,285.76,Single-ply,SBD,M,
Boys,67.13,9,Jace Bramlett,Maud,61.42,104.33,61.23,108.86,274.42,Single-ply,SBD,M,
Boys,74.84,1,Dylan Dodson,Diana New Diana,74.84,206.38,111.13,201.85,519.36,Single-ply,SBD,M,
Boys,74.84,2,Paul Leal,De Kalb,74.21,192.78,115.67,190.51,498.95,Single-ply,SBD,M,
Boys,74.84,3,Cruz Hernandez,De Kalb,70.49,192.78,99.79,181.44,474,Single-ply,SBD,M,
Boys,74.84,4,Dylan Brown,New Boston,74.39,183.7,99.79,183.7,467.2,Single-ply,SBD,M,
Boys,74.84,5,Austin Terry,Queen City,73.48,172.37,92.99,183.7,449.06,Single-ply,SBD,M,
Boys,74.84,6,Kyle Coleman,Beckville,74.84,170.1,92.99,183.7,446.79,Single-ply,SBD,M,
Boys,74.84,7,Gaden Glass,New Boston,70.22,145.15,99.79,176.9,421.84,Single-ply,SBD,M,
Boys,74.84,8,Micheal Colbert,Gilmer Union Hill,74.84,142.88,81.65,181.44,405.97,Single-ply,SBD,M,
Boys,74.84,9,Preston Johnson,Scurry-Rosser,72.21,142.88,88.45,161.03,392.36,Single-ply,SBD,M,
Boys,74.84,10,Tristin Lee,Maud,67.59,136.08,79.38,138.35,353.8,Single-ply,SBD,M,
Boys,74.84,11,Hayden Green,Omaha Pewitt,73.12,104.33,86.18,124.74,315.25,Single-ply,SBD,M,
Boys,74.84,12,John Hight,Waskom,68.67,117.93,61.23,127.01,306.17,Single-ply,SBD,M,
Boys,74.84,13,Kevin Castro,Waskom,67.59,124.74,63.5,111.13,299.37,Single-ply,SBD,M,
Boys,74.84,DQ,Lane McMillan,Hooks,68.13,131.54,,,,Single-ply,SBD,M,
Boys,74.84,DQ,Grayson Smith,Maud,70.67,,,,,Single-ply,SBD,M,
Boys,82.1,1,Zane Freeman,Diana New Diana,80.92,217.72,127.01,226.8,571.53,Single-ply,SBD,M,
Boys,82.1,2,Amar Love,De Kalb,81.56,226.8,117.93,219.99,564.72,Single-ply,SBD,M,
Boys,82.1,3,Dillon Kizer,De Kalb,81.65,215.46,127.01,219.99,562.45,Single-ply,SBD,M,
Boys,82.1,4,Dalton Daniel,New Boston,79.83,226.8,104.33,183.7,514.83,Single-ply,SBD,M,
Boys,82.1,5,Andy Prazak,Diana New Diana,80.29,174.63,106.59,183.7,464.93,Single-ply,SBD,M,
Boys,82.1,6,Milo Morrison,Beckville,76.57,174.63,104.33,181.44,460.4,Single-ply,SBD,M,
Boys,82.1,7,Aj Singleton,Jefferson,76.57,158.76,92.99,181.44,433.18,Single-ply,SBD,M,
Boys,82.1,8,Miguel Herrera,Hooks,82.01,185.97,81.65,163.29,430.91,Single-ply,SBD,M,
Boys,82.1,9,Kutter Smith,Hooks,78.83,156.49,95.25,154.22,405.97,Single-ply,SBD,M,
Boys,82.1,10,Devarious Clark,Hooks,77.2,142.88,95.25,163.29,401.43,Single-ply,SBD,M,
Boys,82.1,11,Parker Key,Jefferson,81.92,136.08,92.99,161.03,390.09,Single-ply,SBD,M,
Boys,82.1,12,Blade Green,Simms Bowie,78.83,149.69,79.38,158.76,387.82,Single-ply,SBD,M,
Boys,82.1,13,Jackson Evans,Scurry-Rosser,77.29,142.88,79.38,147.42,369.68,Single-ply,SBD,M,
Boys,82.1,14,Coleman LaCour,Scurry-Rosser,80.38,136.08,70.31,158.76,365.14,Single-ply,SBD,M,
Boys,82.1,15,Jonas Parish,Gilmer Union Hill,82.1,129.27,74.84,161.03,365.14,Single-ply,SBD,M,
Boys,82.1,16,Jackson Kerr,Linden-Kildare,79.38,127.01,79.38,142.88,349.27,Single-ply,SBD,M,
Boys,82.1,17,Xzavier Huey,Hooks,79.56,136.08,65.77,142.88,344.73,Single-ply,SBD,M,
Boys,82.1,DQ,Ben Latham,Omaha Pewitt,77.75,113.4,,,,Single-ply,SBD,M,
Boys,89.81,1,Arie Love,De Kalb,88.18,251.74,131.54,226.8,610.08,Single-ply,SBD,M,
Boys,89.81,2,Ishmael Allen,Daingerfield,86.27,204.12,115.67,249.48,569.26,Single-ply,SBD,M,
Boys,89.81,3,Londell Howard,De Kalb,88.36,204.12,124.74,233.6,562.45,Single-ply,SBD,M,
Boys,89.81,4,Detrich Byrd,Waskom,89.72,195.04,117.93,181.44,494.42,Single-ply,SBD,M,
Boys,89.81,5,Jaden Wilson #2,Diana New Diana,89.72,197.31,120.2,174.63,492.15,Single-ply,SBD,M,
Boys,89.81,6,Garrison Conner,Diana New Diana,84.46,158.76,95.25,185.97,439.98,Single-ply,SBD,M,
Boys,89.81,7,Gunner Minor,Linden-Kildare,89.54,181.44,102.06,154.22,437.72,Single-ply,SBD,M,
Boys,89.81,8,Nicholas Guel,Pittsburg,83.46,147.42,97.52,154.22,399.16,Single-ply,SBD,M,
Boys,89.81,9,James Gilmore,Omaha Pewitt,86.36,142.88,99.79,154.22,396.89,Single-ply,SBD,M,
Boys,89.81,10,Keldrick Henderson,Pittsburg,85.37,133.81,83.91,136.08,353.8,Single-ply,SBD,M,
Boys,89.81,11,Alan Howard #1,Linden-Kildare,86.45,65.77,43.09,117.93,226.8,Single-ply,SBD,M,
Boys,89.81,DQ,Kole Dooley,De Kalb,88.54,,,,,Single-ply,SBD,M,
Boys,89.81,DQ,Keylan Clark,Diana New Diana,88.99,,,,,Single-ply,SBD,M,
Boys,99.79,1,Bradley Parsons,Detroit,94.71,210.92,142.88,188.24,542.04,Single-ply,SBD,M,
Boys,99.79,2,Kei'Untray Hawkins,Omaha Pewitt,89.99,192.78,120.2,226.8,539.77,Single-ply,SBD,M,
Boys,99.79,3,Ty Price,Pittsburg,96.16,197.31,122.47,188.24,508.02,Single-ply,SBD,M,
Boys,99.79,4,Carson Reneau,Scurry-Rosser,99.52,204.12,113.4,181.44,498.95,Single-ply,SBD,M,
Boys,99.79,5,Colter Clingler,Beckville,95.98,192.78,104.33,183.7,480.81,Single-ply,SBD,M,
Boys,99.79,6,Elisha Higginbotham,Diana New Diana,98.43,176.9,117.93,179.17,474,Single-ply,SBD,M,
Boys,99.79,7,Tate Mitchell,Linden-Kildare,94.98,183.7,97.52,190.51,471.74,Single-ply,SBD,M,
Boys,99.79,8,John McLean,Scurry-Rosser,99.25,170.1,102.06,190.51,462.66,Single-ply,SBD,M,
Boys,99.79,9,Jon Branch,Waskom,91.9,181.44,92.99,170.1,444.52,Single-ply,SBD,M,
Boys,99.79,10,Lazaro Torres,Waskom,98.88,172.37,97.52,163.29,433.18,Single-ply,SBD,M,
Boys,99.79,11,Bladden Troquille,Carthage,90.99,149.69,90.72,188.24,428.64,Single-ply,SBD,M,
Boys,99.79,12,Ethan Lum,Simms Bowie,92.44,151.95,108.86,142.88,403.7,Single-ply,SBD,M,
Boys,99.79,13,Paul McKeon,Hooks,93.08,142.88,77.11,158.76,378.75,Single-ply,SBD,M,
Boys,99.79,14,Kaed Staton,Carthage,93.44,151.95,68.04,158.76,378.75,Single-ply,SBD,M,
Boys,99.79,15,Micheal Cooper,Waskom,94.89,163.29,83.91,124.74,371.95,Single-ply,SBD,M,
Boys,99.79,16,Colby Kniepp,Carthage,96.98,131.54,99.79,131.54,362.87,Single-ply,SBD,M,
Boys,99.79,DQ,Caden Lambert,Diana New Diana,97.61,197.31,,,,Single-ply,SBD,M,
Boys,109.77,1,Tanor Mines,Omaha Pewitt,101.06,199.58,113.4,183.7,496.68,Single-ply,SBD,M,
Boys,109.77,2,Brandon Obenoskey,Simms Bowie,103.6,199.58,99.79,181.44,480.81,Single-ply,SBD,M,
Boys,109.77,3,James Smith,Simms Bowie,108.59,185.97,102.06,185.97,474,Single-ply,SBD,M,
Boys,109.77,4,Andrew Cormany,Beckville,107.05,179.17,97.52,192.78,469.47,Single-ply,SBD,M,
Boys,109.77,5,Pedro Sánchez,Waskom,107.41,190.51,104.33,167.83,462.66,Single-ply,SBD,M,
Boys,109.77,6,Kylon Lister,Carthage,105.78,142.88,111.13,156.49,410.5,Single-ply,SBD,M,
Boys,109.77,7,Austin Grimes,Carthage,106.59,158.76,72.57,124.74,356.07,Single-ply,SBD,M,
Boys,109.77,8,Colton Wilson,Omaha Pewitt,108.32,115.67,65.77,108.86,290.3,Single-ply,SBD,M,
Boys,109.77,DQ,Yair Arreola,Pittsburg,106.05,,,,,Single-ply,SBD,M,
Boys,109.77,DQ,Tyler Cherry,Jefferson,108.86,163.29,,,,Single-ply,SBD,M,
Boys,124.74,1,Landon Liles,Linden-Kildare,121.74,213.19,127.01,226.8,566.99,Single-ply,SBD,M,
Boys,124.74,2,Undra Bates,Pittsburg,109.95,204.12,131.54,229.06,564.72,Single-ply,SBD,M,
Boys,124.74,3,Trace Reynolds,Pittsburg,117.84,226.8,108.86,213.19,548.85,Single-ply,SBD,M,
Boys,124.74,4,Luke Jackson,Carthage,119.93,192.78,129.27,181.44,503.49,Single-ply,SBD,M,
Boys,124.74,5,Laynce Welch,Waskom,123.92,204.12,95.25,183.7,483.08,Single-ply,SBD,M,
Boys,124.74,6,Edwyn Magdaleno,Waskom,113.49,204.12,102.06,170.1,476.27,Single-ply,SBD,M,
Boys,124.74,7,Randall Shivers,Beckville,110.22,183.7,102.06,174.63,460.4,Single-ply,SBD,M,
Boys,124.74,8,Jovanie Agundiz,Waskom,113.13,181.44,95.25,163.29,439.98,Single-ply,SBD,M,
Boys,124.74,9,Briley Barron,Maud,116.75,154.22,113.4,170.1,437.72,Single-ply,SBD,M,
Boys,124.74,10,Ryan Coperton,Omaha Pewitt,115.12,142.88,97.52,183.7,424.11,Single-ply,SBD,M,
Boys,124.74,11,Dawson Parker,New Boston,111.77,163.29,99.79,158.76,421.84,Single-ply,SBD,M,
Boys,124.74,12,Avery Fisher,Linden-Kildare,116.94,106.59,95.25,149.69,351.53,Single-ply,SBD,M,
Boys,124.74+,1,Cedric Davis,Queen City,136.08,283.5,136.08,244.94,664.51,Single-ply,SBD,M,
Boys,124.74+,2,Cody Rutherford,New Boston,142.88,260.82,117.93,215.46,594.21,Single-ply,SBD,M,
Boys,124.74+,3,Demarcus Hill,Omaha Pewitt,158.76,204.12,120.2,226.8,551.11,Single-ply,SBD,M,
Boys,124.74+,4,David Williams #9,Omaha Pewitt,158.76,201.85,83.91,226.8,512.56,Single-ply,SBD,M,
Boys,124.74+,DQ,Carson Harper,Jefferson,149.69,149.69,,,,Single-ply,SBD,M,
Boys,124.74+,DQ,Karston Williams,Carthage,158.85,235.87,,,,Single-ply,SBD,M,
Boys,124.74+,DQ,Clayton Johnson,Scurry-Rosser,135.67,272.16,142.88,,,Single-ply,SBD,M,
