Division,WeightClassKg,Place,Name,Team,BodyweightKg,Best3SquatKg,Best3BenchKg,Best3DeadliftKg,TotalKg,Equipment,Event,Sex,BirthDate
Boys,51.71,1,Giovanny Sanchez,Whitney,48.63,79.38,56.7,122.47,258.55,Single-ply,SBD,M,
Boys,51.71,2,Miguel Pineda,Hillsboro,43.36,90.72,49.9,111.13,251.74,Single-ply,SBD,M,
Boys,55.79,1,Gael Gonzales,Hillsboro,53.52,72.57,47.63,95.25,215.46,Single-ply,SBD,M,
Boys,59.87,1,Braden Wholeb,Whitney,59.87,106.59,65.77,127.01,299.37,Single-ply,SBD,M,
Boys,59.87,2,Braeden Rockett,Whitney,57.15,65.77,52.16,97.52,215.46,Single-ply,SBD,M,
Boys,67.13,1,Hayden Jensen,Whitney,67.13,136.08,95.25,174.63,405.97,Single-ply,SBD,M,
Boys,67.13,2,Alejandro Sanchez,Hillsboro,64.59,120.2,79.38,147.42,347,Single-ply,SBD,M,
Boys,67.13,3,Romeo Silvas,Hillsboro,61.6,136.08,79.38,129.27,344.73,Single-ply,SBD,M,
Boys,67.13,4,John McDowell,Whitney,60.42,108.86,70.31,147.42,326.59,Single-ply,SBD,M,
Boys,67.13,5,Eric Charo,Hillsboro,64.41,81.65,74.84,138.35,294.84,Single-ply,SBD,M,
Boys,67.13,6,Jax Avant,Whitney,60.51,95.25,63.5,106.59,265.35,Single-ply,SBD,M,
Boys,74.84,1,Dalton Wooten,Whitney,68.13,154.22,102.06,151.95,408.23,Single-ply,SBD,M,
Boys,89.81,1,Jacob Trejo,Hillsboro,83.28,156.49,106.59,161.03,424.11,Single-ply,SBD,M,
Boys,89.81,2,Alan Beltran,Hillsboro,83.64,151.95,113.4,151.95,417.3,Single-ply,SBD,M,
Boys,89.81,3,Raul Caballero,Hillsboro,86.91,124.74,92.99,113.4,331.12,Single-ply,SBD,M,
Boys,124.74,1,Esteban Ramirez,Whitney,112.58,183.7,104.33,208.65,496.68,Single-ply,SBD,M,
Boys,139.71,1,Dominic Lara,Hillsboro,131.09,133.81,92.99,142.88,369.68,Single-ply,SBD,M,
