Division,WeightClassKg,Place,Name,Team,BodyweightKg,Best3SquatKg,Best3BenchKg,Best3DeadliftKg,TotalKg,Equipment,Event,Sex,BirthDate
Boys,51.71,1,Juventino Guerrero,Hidalgo Early College,51.07,147.42,92.99,172.37,412.77,Single-ply,SBD,M,
Boys,51.71,2,Leo Ruiz,Hidalgo Early College,49.62,142.88,104.33,151.95,399.16,Single-ply,SBD,M,
Boys,51.71,3,Gustavo Guerrero,Port Isabel,48.99,136.08,90.72,149.69,376.48,Single-ply,SBD,M,
Boys,51.71,4,Derek Perez,Rio Hondo,47.36,154.22,70.31,142.88,367.41,Single-ply,SBD,M,
Boys,51.71,5,Marc Leos,La Feria,49.44,102.06,79.38,129.27,310.71,Single-ply,SBD,M,
Boys,51.71,6,Diego Garcia,Rio Hondo,49.44,117.93,54.43,136.08,308.44,Single-ply,SBD,M,
Boys,51.71,7,Alvaro Valdez,Hidalgo Early College,49.71,108.86,70.31,113.4,292.57,Single-ply,SBD,M,
Boys,51.71,8,Josh Ramirez,Somerset,50.62,104.33,52.16,133.81,290.3,Single-ply,SBD,M,
Boys,51.71,9,Pedro Garza,Carrizo Springs,49.99,97.52,43.09,124.74,265.35,Single-ply,SBD,M,
Boys,51.71,10,Matthew Balderas,Crystal City,48.17,83.91,65.77,104.33,254.01,Single-ply,SBD,M,
Boys,51.71,11,Juan Garcia,Crystal City,47.26,61.23,49.9,92.99,204.12,Single-ply,SBD,M,
Boys,55.79,1,Alex Vela,Corpus Christi Calallen,55.25,192.78,90.72,206.38,489.88,Single-ply,SBD,M,
Boys,55.79,2,John Contreras,Beeville Jones,55.52,181.44,83.91,201.85,467.2,Single-ply,SBD,M,
Boys,55.79,3,Raul Musquiz,Crystal City,54.88,163.29,88.45,181.44,433.18,Single-ply,SBD,M,
Boys,55.79,4,Ryan Jiminez,Crystal City,54.98,154.22,104.33,151.95,410.5,Single-ply,SBD,M,
Boys,55.79,5,Caleb De La Cerda,Corpus Christi Tuloso-Midway,55.16,142.88,106.59,151.95,401.43,Single-ply,SBD,M,
Boys,55.79,6,Michael Contreras,Alice,53.89,136.08,97.52,158.76,392.36,Single-ply,SBD,M,
Boys,55.79,7,Randy Velasquez,Robstown,54.61,149.69,102.06,136.08,387.82,Single-ply,SBD,M,
Boys,55.79,8,Justin Cantu,Corpus Christi Calallen,52.89,124.74,102.06,151.95,378.75,Single-ply,SBD,M,
Boys,55.79,9,Connor Rackley,Corpus Christi Calallen,54.79,138.35,86.18,147.42,371.95,Single-ply,SBD,M,
Boys,55.79,10,Carlos Rosales,Corpus Christi Calallen,55.07,127.01,83.91,151.95,362.87,Single-ply,SBD,M,
Boys,55.79,11,Christian Lozano,Rio Hondo,54.98,124.74,79.38,149.69,353.8,Single-ply,SBD,M,
Boys,55.79,DQ,Jaden Lopez,Port Isabel,54.7,208.65,,,,Single-ply,SBD,M,
Boys,59.87,1,Sebastian Perez,Crystal City,58.97,224.53,120.2,206.38,551.11,Single-ply,SBD,M,
Boys,59.87,2,Julian Cadena,Corpus Christi Calallen,59.24,188.24,151.95,185.97,526.17,Single-ply,SBD,M,
Boys,59.87,3,Ezra Salazar,Corpus Christi Tuloso-Midway,58.51,192.78,106.59,199.58,498.95,Single-ply,SBD,M,
Boys,59.87,4,Ethan Brown,Bandera,58.42,183.7,99.79,183.7,467.2,Single-ply,SBD,M,
Boys,59.87,5,Andrew Gonzalez,Kingsville King,58.88,158.76,92.99,167.83,419.57,Single-ply,SBD,M,
Boys,59.87,6,Daniel Cantu,Corpus Christi West Oso,58.51,140.61,95.25,167.83,403.7,Single-ply,SBD,M,
Boys,59.87,7,Nathaniel Robles,Robstown,59.69,149.69,92.99,142.88,385.55,Single-ply,SBD,M,
Boys,59.87,8,Zachary Alvarez,Uvalde,58.79,142.88,83.91,156.49,383.29,Single-ply,SBD,M,
Boys,59.87,9,Major Holland,Corpus Christi Calallen,58.97,136.08,86.18,127.01,349.27,Single-ply,SBD,M,
Boys,59.87,NS,Robert Longoria,Pearsall,,,,,,Single-ply,SBD,M,
Boys,59.87,DQ,Jorge Guajardo,Port Isabel,59.33,206.38,,,,Single-ply,SBD,M,
Boys,59.87,DQ,Dorian Ramirez,Hidalgo Early College,58.06,145.15,83.91,,,Single-ply,SBD,M,
Boys,59.87,DQ,Blake Frye,Somerset,58.97,,,,,Single-ply,SBD,M,
Boys,67.13,1,Jerek Sanchez,Sinton,66.22,251.74,197.31,254.01,703.07,Single-ply,SBD,M,
Boys,67.13,2,Josh Trevino,Corpus Christi West Oso,67.13,229.06,154.22,231.33,614.62,Single-ply,SBD,M,
Boys,67.13,3,David Hernandez,Port Isabel,64.5,217.72,133.81,226.8,578.33,Single-ply,SBD,M,
Boys,67.13,4,Zachariah Smith,Beeville Jones,66.41,217.72,108.86,199.58,526.17,Single-ply,SBD,M,
Boys,67.13,5,Tomas Arredondo,Rio Hondo,66.04,201.85,124.74,197.31,523.9,Single-ply,SBD,M,
Boys,67.13,6,Jose Barrientos,Rio Hondo,66.59,190.51,113.4,217.72,521.63,Single-ply,SBD,M,
Boys,67.13,7,Seth DeLeon,Devine,65.32,183.7,133.81,183.7,501.22,Single-ply,SBD,M,
Boys,67.13,8,John Chupe,Rockport-Fulton,65.59,181.44,117.93,201.85,501.22,Single-ply,SBD,M,
Boys,67.13,9,Kingston Martinez,Pearsall,65.23,183.7,104.33,199.58,487.61,Single-ply,SBD,M,
Boys,67.13,10,Gilbert Perez,Corpus Christi Tuloso-Midway,65.5,195.04,111.13,181.44,487.61,Single-ply,SBD,M,
Boys,67.13,11,Nicholas Morales,La Feria,65.68,174.63,120.2,170.1,464.93,Single-ply,SBD,M,
Boys,67.13,DQ,Braxton Springer,Pleasanton,65.77,,,,,Single-ply,SBD,M,
Boys,67.13,DQ,Noah Garcia,Somerset,65.23,179.17,,,,Single-ply,SBD,M,
Boys,74.84,1,Eric Hernandez,Devine,73.66,238.14,145.15,251.74,635.03,Single-ply,SBD,M,
Boys,74.84,2,Josiah Lugo,Somerset,72.39,238.14,161.03,204.12,603.28,Single-ply,SBD,M,
Boys,74.84,3,Lucian Medina,Corpus Christi Calallen,70.76,199.58,151.95,222.26,573.79,Single-ply,SBD,M,
Boys,74.84,4,Jaden Howard,Sinton,72.85,206.38,129.27,219.99,555.65,Single-ply,SBD,M,
Boys,74.84,5,Nathaniel Garcia,Corpus Christi Calallen,73.53,197.31,138.35,197.31,532.97,Single-ply,SBD,M,
Boys,74.84,6,Derrin Valdez,Port Isabel,68.22,201.85,117.93,204.12,523.9,Single-ply,SBD,M,
Boys,74.84,7,Wyatt Boss,Hondo,73.57,201.85,138.35,179.17,519.36,Single-ply,SBD,M,
Boys,74.84,8,Juan Garcia,Beeville Jones,73.48,188.24,136.08,190.51,514.83,Single-ply,SBD,M,
Boys,74.84,9,Robert Pena,Rio Grande City Grulla,74.21,174.63,111.13,215.46,501.22,Single-ply,SBD,M,
Boys,74.84,10,Ricky Rodriguez,Port Isabel,74.48,170.1,124.74,176.9,471.74,Single-ply,SBD,M,
Boys,74.84,DQ,Christian Sosa,La Feria,70.03,,,,,Single-ply,SBD,M,
Boys,74.84,DQ,Miguel Barrera,Hidalgo Early College,73.03,233.6,122.47,,,Single-ply,SBD,M,
Boys,82.1,1,Jaxon Mabile,Ingleside,80.2,317.51,188.24,283.5,789.25,Single-ply,SBD,M,
Boys,82.1,2,Travis Menchaca,La Feria,78.74,235.87,129.27,247.21,612.35,Single-ply,SBD,M,
Boys,82.1,3,Ariel Hernandez,Pearsall,79.38,233.6,156.49,222.26,612.35,Single-ply,SBD,M,
Boys,82.1,4,Evan Sanchez,La Feria,80.29,238.14,142.88,231.33,612.35,Single-ply,SBD,M,
Boys,82.1,5,Jarrett Gest,Carrizo Springs,81.37,238.14,147.42,215.46,601.01,Single-ply,SBD,M,
Boys,82.1,6,Matthew Staton,Bandera,79.2,226.8,147.42,208.65,582.87,Single-ply,SBD,M,
Boys,82.1,7,David Garcia,Somerset,79.29,219.99,149.69,206.38,576.06,Single-ply,SBD,M,
Boys,82.1,8,Abel Delarosa,Robstown,79.56,215.46,145.15,210.92,571.53,Single-ply,SBD,M,
Boys,82.1,9,Christopher Guerrero,Raymondville,79.47,215.46,147.42,206.38,569.26,Single-ply,SBD,M,
Boys,82.1,10,Christian Ferrone,Port Isabel,81.01,226.8,111.13,217.72,555.65,Single-ply,SBD,M,
Boys,82.1,NS,Nick Lazo,Corpus Christi Tuloso-Midway,,,,,,Single-ply,SBD,M,
Boys,82.1,DQ,Jesse Alaniz,Kingsville King,80.56,240.4,163.29,,,Single-ply,SBD,M,
Boys,89.81,1,Devon Munoz,Corpus Christi West Oso,87.09,265.35,217.72,256.28,739.36,Single-ply,SBD,M,
Boys,89.81,2,Seth Morgan,Ingleside,89.09,263.08,183.7,278.96,725.75,Single-ply,SBD,M,
Boys,89.81,3,Alan Rodriguez,Corpus Christi Tuloso-Midway,88.9,272.16,163.29,249.48,684.92,Single-ply,SBD,M,
Boys,89.81,4,Johnfree Carden,Rockport-Fulton,88.27,260.82,127.01,290.3,678.12,Single-ply,SBD,M,
Boys,89.81,5,Epifanio Hinojosa,Corpus Christi Calallen,88.18,274.42,165.56,233.6,673.58,Single-ply,SBD,M,
Boys,89.81,6,Michael Guajardo,Corpus Christi Tuloso-Midway,87.36,226.8,124.74,249.48,601.01,Single-ply,SBD,M,
Boys,89.81,7,Raul Maldonado,Crystal City,85.28,217.72,167.83,206.38,591.94,Single-ply,SBD,M,
Boys,89.81,8,Adrian Estrada,Rockport-Fulton,88.09,233.6,115.67,213.19,562.45,Single-ply,SBD,M,
Boys,89.81,NS,David Garza,La Feria,,,,,,Single-ply,SBD,M,
Boys,89.81,DQ,Matthew Jimenez,Raymondville,87.18,,,,,Single-ply,SBD,M,
Boys,89.81,DQ,Rodolfo Reyes,Uvalde,87.09,265.35,124.74,,,Single-ply,SBD,M,
Boys,89.81,DQ,Manuel Flores,Rio Hondo,88.27,,,,,Single-ply,SBD,M,
Boys,89.81,DQ,Matthew Salinas,Beeville Jones,87.27,,,,,Single-ply,SBD,M,
Boys,99.79,1,Joey Cantu,Rockport-Fulton,96.25,310.71,183.7,260.82,755.23,Single-ply,SBD,M,
Boys,99.79,2,Isaac Garcia,Crystal City,98.88,281.23,183.7,251.74,716.68,Single-ply,SBD,M,
Boys,99.79,3,Orlando Morales,La Feria,95.44,285.76,158.76,258.55,703.07,Single-ply,SBD,M,
Boys,99.79,4,Jadon Sanchez,Ingleside,92.08,260.82,127.01,238.14,625.96,Single-ply,SBD,M,
Boys,99.79,5,Matthias Esparza,Rockport-Fulton,95.53,260.82,149.69,215.46,625.96,Single-ply,SBD,M,
Boys,99.79,6,Phillip Krupa,Rockport-Fulton,98.52,240.4,161.03,222.26,623.69,Single-ply,SBD,M,
Boys,99.79,7,Kaloeb Son,Bandera,98.07,247.21,145.15,226.8,619.15,Single-ply,SBD,M,
Boys,99.79,8,Salvador Sanchez,Somerset,92.99,233.6,136.08,208.65,578.33,Single-ply,SBD,M,
Boys,99.79,9,Kaleb Clinton,Port Isabel,90.45,217.72,142.88,210.92,571.53,Single-ply,SBD,M,
Boys,99.79,10,Joshua Jarman,Corpus Christi Calallen,91.63,226.8,136.08,208.65,571.53,Single-ply,SBD,M,
Boys,99.79,11,Ezequiel Palestina,Port Isabel,97.98,229.06,120.2,206.38,555.65,Single-ply,SBD,M,
Boys,99.79,DQ,Zach Martinez,Devine,91.9,,,,,Single-ply,SBD,M,
Boys,99.79,DQ,Ronnie Guerra,Zapata,97.61,,,,,Single-ply,SBD,M,
Boys,99.79,DQ,Gerardo Cantu,Somerset,97.98,,,,,Single-ply,SBD,M,
Boys,109.77,1,Isaiah Garay,Somerset,108.5,362.87,226.8,201.85,791.52,Single-ply,SBD,M,
Boys,109.77,2,Alfredo Segura,Carrizo Springs,105.96,306.17,170.1,288.03,764.3,Single-ply,SBD,M,
Boys,109.77,3,Steven Terrazas,Somerset,108.86,283.5,226.8,251.74,762.04,Single-ply,SBD,M,
Boys,109.77,4,Antonio Marroquin,La Feria,108.41,288.03,185.97,254.01,728.02,Single-ply,SBD,M,
Boys,109.77,5,Martin Rios,Crystal City,107.5,294.84,190.51,233.6,718.94,Single-ply,SBD,M,
Boys,109.77,6,Xavier Aleman,Beeville Jones,108.41,278.96,179.17,226.8,684.92,Single-ply,SBD,M,
Boys,109.77,7,Evan Eden,Corpus Christi Calallen,99.97,263.08,158.76,258.55,680.39,Single-ply,SBD,M,
Boys,109.77,8,Grant Taylor,Corpus Christi Calallen,108.14,265.35,161.03,210.92,637.3,Single-ply,SBD,M,
Boys,109.77,9,Kane Martinez,Hidalgo Early College,106.41,249.48,124.74,240.4,614.62,Single-ply,SBD,M,
Boys,109.77,10,Felipe Cuellar,Hondo,104.05,231.33,145.15,235.87,612.35,Single-ply,SBD,M,
Boys,109.77,11,Aureliano Saenz,Corpus Christi Calallen,107.77,219.99,161.03,204.12,585.13,Single-ply,SBD,M,
Boys,109.77,DQ,Abelino Lopez,Rio Grande City Grulla,107.23,,,,,Single-ply,SBD,M,
Boys,124.74,1,Matthew Lopez,Rio Hondo,123.1,317.51,208.65,278.96,805.13,Single-ply,SBD,M,
Boys,124.74,2,Aiden Hinojosa,Corpus Christi Calallen,116.39,322.05,201.85,278.96,802.86,Single-ply,SBD,M,
Boys,124.74,3,Gabriel Gutierrez,Pearsall,116.39,303.91,170.1,265.35,739.36,Single-ply,SBD,M,
Boys,124.74,4,Robert Kroen,Corpus Christi Tuloso-Midway,121.74,294.84,190.51,244.94,730.28,Single-ply,SBD,M,
Boys,124.74,5,Arturo Gallegos III,Ingleside,117.93,303.91,147.42,258.55,709.87,Single-ply,SBD,M,
Boys,124.74,6,Frankie Castillo,Somerset,117.75,308.44,183.7,215.46,707.6,Single-ply,SBD,M,
Boys,124.74,7,Ruben Perez,Rio Hondo,118.12,276.69,174.63,226.8,678.12,Single-ply,SBD,M,
Boys,124.74,8,Michael Garza,Rio Hondo,110.77,260.82,170.1,226.8,657.71,Single-ply,SBD,M,
Boys,124.74,9,Benjamin Rios,Rio Grande City Grulla,117.03,263.08,161.03,199.58,623.69,Single-ply,SBD,M,
Boys,124.74,10,Julio Obregon,Hondo,119.48,240.4,156.49,222.26,619.15,Single-ply,SBD,M,
Boys,124.74,NS,Saul Hernandez,Hidalgo Early College,,,,,,Single-ply,SBD,M,
Boys,124.74,DQ,Daniel Solis,Somerset,112.67,,,,,Single-ply,SBD,M,
Boys,124.74,DQ,Aaron Graves,Uvalde,116.48,217.72,158.76,,,Single-ply,SBD,M,
Boys,139.71,1,Scott Atkinson,Rio Hondo,133.45,326.59,179.17,272.16,777.91,Single-ply,SBD,M,
Boys,139.71,2,Nate Martinez,Sinton,133.81,306.17,204.12,242.67,752.96,Single-ply,SBD,M,
Boys,139.71,3,Abraham Vasquez,Somerset,131.18,324.32,183.7,240.4,748.43,Single-ply,SBD,M,
Boys,139.71,4,Diego Valdez,Pleasanton,135.81,283.5,201.85,240.4,725.75,Single-ply,SBD,M,
Boys,139.71,5,Elijah Brown,Sinton,125.83,283.5,174.63,247.21,705.34,Single-ply,SBD,M,
Boys,139.71,6,Benjamin Oyervides,Robstown,130.63,263.08,181.44,208.65,653.17,Single-ply,SBD,M,
Boys,139.71,7,Jonas Olivarez,Rockport-Fulton,134.26,249.48,188.24,208.65,646.37,Single-ply,SBD,M,
Boys,139.71,8,Rudy Sanchez,La Feria,130.73,260.82,156.49,219.99,637.3,Single-ply,SBD,M,
Boys,139.71,9,Noah Sizemore,Bandera,133.81,278.96,131.54,213.19,623.69,Single-ply,SBD,M,
Boys,139.71,10,Tiger Perez,Kingsville King,125.01,233.6,156.49,217.72,607.81,Single-ply,SBD,M,
Boys,139.71,11,Manuel Ramirez,Rio Hondo,125.55,219.99,129.27,222.26,571.53,Single-ply,SBD,M,
Boys,139.71,NS,Guadalupe Bazan,Rio Grande City Grulla,,,,,,Single-ply,SBD,M,
Boys,139.71+,1,Nick Gomez,Raymondville,148.78,317.51,192.78,258.55,768.84,Single-ply,SBD,M,
Boys,139.71+,2,Mark Pena,Robstown,146.06,310.71,222.26,233.6,766.57,Single-ply,SBD,M,
Boys,139.71+,3,Miguel Chavarria,Rio Hondo,152.86,219.99,151.95,233.6,605.55,Single-ply,SBD,M,
Boys,139.71+,4,Javier Adams,Somerset,174.27,192.78,188.24,222.26,603.28,Single-ply,SBD,M,
Boys,139.71+,5,Patrick Davis,Corpus Christi Calallen,140.98,244.94,158.76,197.31,601.01,Single-ply,SBD,M,
Boys,139.71+,6,Leesandro Martinez,Rio Grande City Grulla,150.77,215.46,145.15,210.92,571.53,Single-ply,SBD,M,
Boys,139.71+,7,Ricardo Barba,La Feria,164.56,204.12,138.35,172.37,514.83,Single-ply,SBD,M,
Boys,139.71+,8,Tomas Amaya,Kingsville King,180.08,204.12,113.4,158.76,476.27,Single-ply,SBD,M,
Boys,139.71+,9,Juan Villegas,Rio Hondo,145.6,145.15,113.4,174.63,433.18,Single-ply,SBD,M,
Boys,139.71+,DQ,Luis Sanchez,San Antonio Holy Cross,150.41,,,,,Single-ply,SBD,M,
Boys,139.71+,DQ,Jacob Delaney,Devine,142.7,226.8,,,,Single-ply,SBD,M,
Boys,139.71+,DQ,Jakob Perez,Somerset,148.32,,,,,Single-ply,SBD,M,
