Division,WeightClassKg,Place,Name,Team,BodyweightKg,Best3SquatKg,Best3BenchKg,Best3DeadliftKg,TotalKg,Equipment,Event,Sex
Varsity,51.71,1,Robert Gonzalez,Laredo Cigarroa,50.89,145.15,83.91,156.49,385.55,Single-ply,SBD,M
Varsity,55.79,1,Jesus Trevino,Zapata,54.43,158.76,92.99,183.7,435.45,Single-ply,SBD,M
Varsity,55.79,2,Mario Saldivar,Laredo Alexander,55.79,163.29,92.99,170.1,426.38,Single-ply,SBD,M
Varsity,55.79,3,Luis Antonio Garcia,Laredo Martin,52.8,117.93,63.5,145.15,326.59,Single-ply,SBD,M
Varsity,55.79,4,Raul Fuentes,Laredo Nixon,52.34,90.72,52.16,117.93,260.82,Single-ply,SBD,M
Varsity,59.87,1,Artemio Garcia,Zapata,59.69,213.19,115.67,197.31,526.17,Single-ply,SBD,M
Varsity,59.87,2,Rodney Garcia,Carrizo Springs,59.24,156.49,88.45,158.76,403.7,Single-ply,SBD,M
Varsity,59.87,3,Joe Torres #7,Laredo Nixon,59.87,97.52,83.91,172.37,353.8,Single-ply,SBD,M
Varsity,59.87,4,Jonathan Vedia,Bruni,57.7,131.54,77.11,136.08,344.73,Single-ply,SBD,M
Varsity,67.13,5,Felix Ruiz,Laredo Nixon,60.1,136.08,65.77,136.08,337.93,Single-ply,SBD,M
Varsity,59.87,6,Marco Gomez,Crystal City,59.06,97.52,65.77,92.99,256.28,Single-ply,SBD,M
Varsity,59.87,DQ,Dimas Tenorio,Crystal City,57.7,,,,,Single-ply,SBD,M
Varsity,67.13,1,Jonathan Pena,Laredo United South,66.59,240.4,138.35,222.26,601.01,Single-ply,SBD,M
Varsity,67.13,2,Marvin Martinez,Laredo United South,65.5,208.65,120.2,176.9,505.76,Single-ply,SBD,M
Varsity,67.13,3,Josue Tobias,Laredo Nixon,65.05,192.78,104.33,204.12,501.22,Single-ply,SBD,M
Varsity,67.13,4,Maclovio Gomez,Zapata,61.87,181.44,92.99,192.78,467.2,Single-ply,SBD,M
Varsity,74.84,5,Rene Cabrera,Laredo Cigarroa,67.31,199.58,97.52,154.22,451.32,Single-ply,SBD,M
Varsity,67.13,6,Gil Garcia,Crystal City,66.95,142.88,90.72,190.51,424.11,Single-ply,SBD,M
Varsity,67.13,7,Robert Rendon,Crystal City,66.22,161.03,90.72,163.29,415.04,Single-ply,SBD,M
Varsity,67.13,8,JJ Ramirez,Bruni,67.04,145.15,92.99,147.42,385.55,Single-ply,SBD,M
Varsity,67.13,9,Hiram Olvera,Laredo Martin,64.95,147.42,74.84,156.49,378.75,Single-ply,SBD,M
Varsity,67.13,10,Issac Ramos,Bruni,64.86,140.61,90.72,145.15,376.48,Single-ply,SBD,M
Varsity,67.13,11,Jesse Ramirez #4,Laredo Alexander,66.68,138.35,72.57,158.76,369.68,Single-ply,SBD,M
Varsity,67.13,12,Michael Hale,Laredo United,64.5,136.08,74.84,147.42,358.34,Single-ply,SBD,M
Varsity,67.13,13,Diego Garcia,Laredo Johnson,66.32,90.72,102.06,165.56,358.34,Single-ply,SBD,M
Varsity,67.13,14,Alexis Villanueva,Laredo United,66.77,120.2,83.91,154.22,358.34,Single-ply,SBD,M
Varsity,67.13,15,Eddie Esquivel,Bruni,61.33,136.08,79.38,140.61,356.07,Single-ply,SBD,M
Varsity,67.13,16,Sergio Ponce,Laredo Martin,65.23,120.2,65.77,147.42,333.39,Single-ply,SBD,M
Varsity,74.84,17,Francisco Arenas,Crystal City,67.31,111.13,61.23,149.69,322.05,Single-ply,SBD,M
Varsity,74.84,DQ,Gabriel Bautista,Zapata,67.31,147.42,,,,Single-ply,SBD,M
Varsity,82.1,1,Yahir Garcia,Laredo United South,75.02,210.92,127.01,235.87,573.79,Single-ply,SBD,M
Varsity,74.84,2,Hector Villarreal,Laredo United South,72.76,213.19,117.93,204.12,535.24,Single-ply,SBD,M
Varsity,82.1,3,Jonathan Brooks,Laredo Martin,75.07,190.51,111.13,215.46,517.1,Single-ply,SBD,M
Varsity,74.84,4,Crispin Mercado,Carrizo Springs,70.03,154.22,95.25,172.37,421.84,Single-ply,SBD,M
Varsity,74.84,5,Raul Solis,Laredo Cigarroa,73.12,122.47,72.57,140.61,335.66,Single-ply,SBD,M
Varsity,74.84,DQ,Jorge Morrat,Laredo Johnson,73.94,,,,,Single-ply,SBD,M
Varsity,82.1,DQ,Arturo Gutierrez,Laredo Martin,74.93,136.08,,,,Single-ply,SBD,M
Varsity,74.84,DQ,Johnny Gonzalez,Zapata,73.57,163.29,,,,Single-ply,SBD,M
Varsity,82.1,1,Mark Molina,Laredo Cigarroa,79.92,204.12,104.33,204.12,512.56,Single-ply,SBD,M
Varsity,82.1,2,Juan Cisneros,Laredo Johnson,76.75,208.65,102.06,190.51,501.22,Single-ply,SBD,M
Varsity,82.1,3,Matthew Guzman,Laredo Nixon,81.47,190.51,106.59,170.1,467.2,Single-ply,SBD,M
Varsity,82.1,4,Pablo Huerta,Laredo Alexander,80.56,183.7,102.06,167.83,453.59,Single-ply,SBD,M
Varsity,82.1,5,Emmanuel Garza,Laredo United,75.84,158.76,102.06,188.24,449.06,Single-ply,SBD,M
Varsity,82.1,6,Rene Romero,Crystal City,80.2,165.56,92.99,154.22,412.77,Single-ply,SBD,M
Varsity,82.1,7,Louie Salazar,Carrizo Springs,76.2,147.42,92.99,145.15,385.55,Single-ply,SBD,M
Varsity,89.81,1,David Luna,Laredo Johnson,87.36,235.87,124.74,226.8,587.4,Single-ply,SBD,M
Varsity,89.81,2,Jose Anaya,Laredo United South,88.72,238.14,117.93,217.72,573.79,Single-ply,SBD,M
Varsity,89.81,3,Omar Galan,Laredo Alexander,87.27,210.92,131.54,210.92,553.38,Single-ply,SBD,M
Varsity,99.79,4,Michael Vasquez,Carrizo Springs,90.04,149.69,122.47,192.78,464.93,Single-ply,SBD,M
Varsity,89.81,5,Jorge Rios,Laredo Alexander,86.64,154.22,122.47,181.44,458.13,Single-ply,SBD,M
Varsity,89.81,6,Angel Blanco,Laredo Cigarroa,85.18,151.95,104.33,158.76,415.04,Single-ply,SBD,M
Varsity,89.81,7,Mariano Valdez,Laredo Cigarroa,85.91,165.56,86.18,145.15,396.89,Single-ply,SBD,M
Varsity,89.81,8,Jonathon Alvarado,Crystal City,85.91,129.27,83.91,142.88,356.07,Single-ply,SBD,M
Varsity,89.81,DQ,Calvin Martinez,Carrizo Springs,84.82,188.24,,,,Single-ply,SBD,M
Varsity,89.81,DQ,Hugo Zamora,Laredo Cigarroa,88.45,231.33,,,,Single-ply,SBD,M
Varsity,99.79,1,Erick Gil,Laredo Alexander,98.07,185.97,145.15,197.31,528.44,Single-ply,SBD,M
Varsity,99.79,2,Jesse Hernandez,Laredo Alexander,97.61,181.44,127.01,190.51,498.95,Single-ply,SBD,M
Varsity,99.79,3,Jesus de Jesus,Zapata,99.25,156.49,113.4,222.26,492.15,Single-ply,SBD,M
Varsity,99.79,4,Eduardo Dominguez,Laredo United,94.8,183.7,106.59,197.31,487.61,Single-ply,SBD,M
Varsity,99.79,5,Victor Lozano,Laredo Nixon,91.63,188.24,88.45,176.9,453.59,Single-ply,SBD,M
Varsity,99.79,6,Emilio Alvarado,Crystal City,97.89,145.15,106.59,154.22,405.97,Single-ply,SBD,M
Varsity,99.79,7,Joseph Gomez,Laredo United,98.7,120.2,99.79,174.63,394.63,Single-ply,SBD,M
Varsity,99.79,8,Alejandro Gonzalez,Crystal City,91.63,151.95,83.91,156.49,392.36,Single-ply,SBD,M
Varsity,99.79,9,Michael Almedina,Zapata,97.52,147.42,83.91,161.03,392.36,Single-ply,SBD,M
Varsity,109.77,1,Marco Banda,Laredo Nixon,100.43,301.64,181.44,249.48,732.55,Single-ply,SBD,M
Varsity,109.77,2,Francisco Torrecilla,Laredo Nixon,108.59,240.4,108.86,251.74,601.01,Single-ply,SBD,M
Varsity,109.77,3,Austin Hart,Laredo Alexander,106.41,215.46,113.4,229.06,557.92,Single-ply,SBD,M
Varsity,124.74,4,Juan Ramirez,Carrizo Springs,110,201.85,149.69,206.38,557.92,Single-ply,SBD,M
Varsity,109.77,5,Erik Huerta,Laredo United South,108.77,213.19,113.4,183.7,510.29,Single-ply,SBD,M
Varsity,109.77,6,Eliud Benavides,Laredo Martin,109.13,201.85,115.67,179.17,496.68,Single-ply,SBD,M
Varsity,109.77,7,Rafael Estevez,Laredo United,101.6,176.9,111.13,204.12,492.15,Single-ply,SBD,M
Varsity,109.77,8,Jorge Rodriguez,Zapata,105.05,167.83,120.2,204.12,492.15,Single-ply,SBD,M
Varsity,124.74,9,Jordi Lopez,Laredo United,109.86,170.1,108.86,188.24,467.2,Single-ply,SBD,M
Varsity,109.77,10,Eddie Medellin,Laredo Nixon,109.41,167.83,90.72,163.29,421.84,Single-ply,SBD,M
Varsity,109.77,DQ,Zachary Zavala,Crystal City,108.68,199.58,108.86,,,Single-ply,SBD,M
Varsity,124.74,1,Guadalupe Gonzalez,Laredo Martin,119.57,235.87,113.4,229.06,578.33,Single-ply,SBD,M
Varsity,124.74,2,Oscar Zepeda,Zapata,118.75,206.38,129.27,208.65,544.31,Single-ply,SBD,M
Varsity,124.74,3,Efrain Batres,Laredo Martin,121.93,226.8,104.33,206.38,537.51,Single-ply,SBD,M
Varsity,124.74,4,Jose Beltran,Laredo Martin,121.47,213.19,131.54,190.51,535.24,Single-ply,SBD,M
Varsity,124.74,5,Alex Charcas,Laredo Cigarroa,111.95,215.46,113.4,183.7,512.56,Single-ply,SBD,M
Varsity,124.74,6,Mike Martinez,Laredo Nixon,114.58,199.58,115.67,192.78,508.02,Single-ply,SBD,M
Varsity,124.74,7,Reynaldo Martinez,Laredo Johnson,119.39,151.95,90.72,190.51,433.18,Single-ply,SBD,M
Varsity,124.74,8,Maximiliano Villarreal,Laredo United,114.4,170.1,81.65,165.56,417.3,Single-ply,SBD,M
Varsity,124.74,DQ,Jacob Reyna,Laredo Cigarroa,124.74,158.76,97.52,,,Single-ply,SBD,M
Varsity,124.74,DQ,Hugo Martinez,Zapata,124.01,,,,,Single-ply,SBD,M
Varsity,124.74+,1,Rudy Flores,Laredo United South,148.32,374.21,183.7,272.16,830.07,Single-ply,SBD,M
Varsity,124.74+,2,Eduardo Sanchez,Zapata,149.41,301.64,192.78,254.01,748.43,Single-ply,SBD,M
Varsity,124.74+,3,Edward Gonzalez,Crystal City,132.27,272.16,142.88,185.97,601.01,Single-ply,SBD,M
Varsity,124.74+,4,Jose Salvador,Laredo United South,139.25,208.65,158.76,217.72,585.13,Single-ply,SBD,M
Varsity,124.74+,5,Mario Chavez,Carrizo Springs,186.34,210.92,161.03,206.38,578.33,Single-ply,SBD,M
Varsity,124.74+,6,Juan Vieyva,Laredo Johnson,138.71,185.97,106.59,190.51,483.08,Single-ply,SBD,M
Varsity,124.74+,7,Marco Fuentes,Laredo Martin,134.26,192.78,90.72,197.31,480.81,Single-ply,SBD,M
