Division,WeightClassKg,Place,Name,Team,BodyweightKg,Best3SquatKg,Best3BenchKg,Best3DeadliftKg,TotalKg,Equipment,Event,Sex,BirthDate
Boys,51.71,1,Benito Barrera,Laredo Johnson,50.8,108.86,70.31,129.27,308.44,Single-ply,SBD,M,
Boys,51.71,2,Angel Martinez #12,Laredo Johnson,49.44,97.52,58.97,113.4,269.89,Single-ply,SBD,M,
Boys,59.87,1,Roel Barrera,Del Rio,58.15,167.83,111.13,151.95,430.91,Single-ply,SBD,M,
Boys,59.87,2,Gilbert Resendez,San Antonio Wagner,58.33,127.01,74.84,147.42,349.27,Single-ply,SBD,M,
Boys,67.13,1,Joe Fraga,Runge,64.41,206.38,104.33,229.06,539.77,Single-ply,SBD,M,
Boys,67.13,2,Alex Cardenas,Del Rio,65.05,170.1,124.74,192.78,487.61,Single-ply,SBD,M,
Boys,67.13,3,Gavin Gutierrez,Runge,64.14,170.1,95.25,190.51,455.86,Single-ply,SBD,M,
Boys,67.13,4,Chris Kitteman,Laredo Johnson,62.78,149.69,122.47,181.44,453.59,Single-ply,SBD,M,
Boys,67.13,5,Ruben Cardenas,Del Rio,65.77,158.76,117.93,167.83,444.52,Single-ply,SBD,M,
Boys,74.84,1,Adrian Cardenas,Del Rio,70.67,219.99,136.08,213.19,569.26,Single-ply,SBD,M,
Boys,74.84,2,Leonardo Sena,Laredo Johnson,73.3,176.9,156.49,188.24,521.63,Single-ply,SBD,M,
Boys,74.84,3,Samuel Flores,Del Rio,67.86,188.24,122.47,188.24,498.95,Single-ply,SBD,M,
Boys,74.84,4,Marcos Gonzalez,Laredo Alexander,71.85,176.9,117.93,199.58,494.42,Single-ply,SBD,M,
Boys,74.84,5,Carlos Mora,Laredo Alexander,69.67,174.63,86.18,192.78,453.59,Single-ply,SBD,M,
Boys,74.84,6,Abraham Guillen,Del Rio,69.76,142.88,90.72,156.49,390.09,Single-ply,SBD,M,
Boys,74.84,7,Ricardo Sanchez,Laredo Johnson,69.22,138.35,83.91,165.56,387.82,Single-ply,SBD,M,
Boys,74.84,8,Jorge Herrera,Del Rio,73.48,147.42,79.38,156.49,383.29,Single-ply,SBD,M,
Boys,74.84,9,Jonathan Kraatz,Runge,71.76,142.88,72.57,142.88,358.34,Single-ply,SBD,M,
Boys,82.1,1,Jarrett Gest,Carrizo Springs,82.1,244.94,151.95,217.72,614.62,Single-ply,SBD,M,
Boys,82.1,2,Rene Carrasco,Del Rio,77.29,226.8,117.93,183.7,528.44,Single-ply,SBD,M,
Boys,82.1,3,Salvador Guerrero,Laredo Johnson,78.47,183.7,90.72,147.42,421.84,Single-ply,SBD,M,
Boys,82.1,4,Felipe Lopez,Del Rio,75.39,138.35,104.33,170.1,412.77,Single-ply,SBD,M,
Boys,82.1,5,Domingo Sanchez,Del Rio,80.92,145.15,90.72,174.63,410.5,Single-ply,SBD,M,
Boys,82.1,6,Sebastian Martinez,Laredo Alexander,75.39,147.42,90.72,170.1,408.23,Single-ply,SBD,M,
Boys,82.1,7,Andrew Guillen,Del Rio,76.48,151.95,104.33,151.95,408.23,Single-ply,SBD,M,
Boys,82.1,8,David Betancourt,Laredo Johnson,80.92,127.01,74.84,147.42,349.27,Single-ply,SBD,M,
Boys,82.1,9,Dante Bonilla,Laredo Alexander,81.83,124.74,70.31,133.81,328.85,Single-ply,SBD,M,
Boys,89.81,1,Gerado Enriquez,Laredo Alexander,88,247.21,158.76,231.33,637.3,Single-ply,SBD,M,
Boys,89.81,2,Robert Mendoza,San Antonio Wagner,86.55,181.44,131.54,190.51,503.49,Single-ply,SBD,M,
Boys,89.81,3,Agustin Meza,Laredo Alexander,89.81,176.9,104.33,199.58,480.81,Single-ply,SBD,M,
Boys,89.81,4,Sabastian Reyna,Runge,83.37,183.7,95.25,192.78,471.74,Single-ply,SBD,M,
Boys,89.81,5,Sebastian Rodriguez,Laredo Johnson,85.55,183.7,102.06,183.7,469.47,Single-ply,SBD,M,
Boys,89.81,6,Andrew Mancha,Laredo Johnson,85.18,167.83,106.59,165.56,439.98,Single-ply,SBD,M,
Boys,89.81,DQ,Ricky Torres,Del Rio,85.82,215.46,115.67,,,Single-ply,SBD,M,
Boys,99.79,1,Peter Figueroa,Laredo Johnson,96.98,226.8,142.88,224.53,594.21,Single-ply,SBD,M,
Boys,99.79,2,Cesar Diaz,Del Rio,95.98,215.46,142.88,210.92,569.26,Single-ply,SBD,M,
Boys,99.79,3,Lonnie Green Jr,Del Rio,99.79,201.85,129.27,210.92,542.04,Single-ply,SBD,M,
Boys,99.79,4,Jorge Saldana,Laredo Alexander,90.72,204.12,120.2,208.65,532.97,Single-ply,SBD,M,
Boys,99.79,5,Esteban Caballero,Laredo Alexander,94.98,199.58,122.47,204.12,526.17,Single-ply,SBD,M,
Boys,99.79,6,Jose Esqueda,Laredo Alexander,93.08,176.9,90.72,199.58,467.2,Single-ply,SBD,M,
Boys,99.79,7,Jaiden Morin,San Antonio Wagner,94.53,149.69,104.33,183.7,437.72,Single-ply,SBD,M,
Boys,99.79,8,Carlo Vega,Laredo Johnson,93.08,149.69,83.91,174.63,408.23,Single-ply,SBD,M,
Boys,109.77,1,Alfredo Segura,Carrizo Springs,103.87,324.32,167.83,278.96,771.11,Single-ply,SBD,M,
Boys,109.77,2,Gabriel Sanchez,Del Rio,101.33,188.24,124.74,190.51,503.49,Single-ply,SBD,M,
Boys,109.77,3,Terrell August,San Antonio Wagner,106.87,170.1,136.08,188.24,494.42,Single-ply,SBD,M,
Boys,124.74,1,Caleb Rodriguez,Del Rio,122.74,254.01,133.81,199.58,587.4,Single-ply,SBD,M,
Boys,124.74,2,Brain Gonzalez,San Antonio Wagner,120.38,231.33,138.35,201.85,571.53,Single-ply,SBD,M,
Boys,124.74,3,Zaphanaius Thioana,San Antonio Wagner,119.2,190.51,113.4,190.51,494.42,Single-ply,SBD,M,
Boys,124.74,4,Joel Esquivel,Del Rio,115.85,120.2,74.84,151.95,347,Single-ply,SBD,M,
Boys,139.71,1,Anthony Huizar,Del Rio,125.19,288.03,165.56,242.67,696.26,Single-ply,SBD,M,
Boys,139.71,2,Tolbert Garcia,Laredo Alexander,133.27,258.55,151.95,238.14,648.64,Single-ply,SBD,M,
Boys,139.71,3,Christian Donalson,San Antonio Wagner,127.37,235.87,124.74,226.8,587.4,Single-ply,SBD,M,
Boys,139.71,4,Joaquinn Fuentes,Del Rio,133.17,201.85,115.67,204.12,521.63,Single-ply,SBD,M,
Boys,139.71,5,Jorge Serna,Laredo Alexander,131.27,190.51,102.06,215.46,508.02,Single-ply,SBD,M,
Boys,139.71,6,Alfredo Vasquez,Del Rio,134.54,127.01,65.77,145.15,337.93,Single-ply,SBD,M,
Boys,139.71+,1,Ehud Mendez,Laredo Alexander,139.89,242.67,124.74,254.01,621.42,Single-ply,SBD,M,
Boys,139.71+,2,Gerado Medrano,Laredo Johnson,146.6,249.48,129.27,235.87,614.62,Single-ply,SBD,M,
Boys,139.71+,3,Diego Garcia,Del Rio,141.7,215.46,136.08,217.72,569.26,Single-ply,SBD,M,
Boys,139.71+,4,Jerry Allen,San Antonio Wagner,146.69,215.46,117.93,206.38,539.77,Single-ply,SBD,M,
Boys,,NS,Nehemiah Hernandez,San Antonio Wagner,,,,,,Single-ply,SBD,M,
Boys,,NS,Abraham Valenzuela,San Antonio Wagner,,,,,,Single-ply,SBD,M,
Boys,,NS,James Bruce,San Antonio Wagner,,,,,,Single-ply,SBD,M,
Boys,,NS,Colbin Gutierrez,Runge,,,,,,Single-ply,SBD,M,
Boys,,NS,Trent Jones,Runge,,,,,,Single-ply,SBD,M,
Boys,,NS,Patrick Segura,Runge,,,,,,Single-ply,SBD,M,
Boys,,NS,Jonathan Banuelos,San Antonio Wagner,,,,,,Single-ply,SBD,M,
Boys,,NS,Nicholas Cruz,Carrizo Springs,,,,,,Single-ply,SBD,M,
Boys,,NS,Marcos Garcia,Carrizo Springs,,,,,,Single-ply,SBD,M,
