Division,WeightClassKg,Place,Name,Team,BodyweightKg,Best3SquatKg,Best3BenchKg,Best3DeadliftKg,TotalKg,Equipment,Event,Sex,BirthDate
Boys,51.71,1,Kody Estes,Donna,50.3,133.81,72.57,158.76,365.14,Single-ply,SBD,M,
Boys,51.71,2,Benigno Garcia,Donna,51.3,133.81,81.65,142.88,358.34,Single-ply,SBD,M,
Boys,55.79,1,Elias Guerrero,Donna,55.79,140.61,81.65,142.88,365.14,Single-ply,SBD,M,
Boys,59.87,1,Jeremy Salazar,Donna North,59.56,167.83,97.52,183.7,449.06,Single-ply,SBD,M,
Boys,59.87,2,Darren Perez,Harlingen South,59.65,165.56,77.11,165.56,408.23,Single-ply,SBD,M,
Boys,59.87,3,Gael Garcia,Weslaco,59.87,142.88,77.11,163.29,383.29,Single-ply,SBD,M,
Boys,59.87,4,Beau Cuellar,Weslaco,59.87,138.35,70.31,124.74,333.39,Single-ply,SBD,M,
Boys,67.13,1,Eithen Gutierrez,Donna,65.73,158.76,90.72,142.88,392.36,Single-ply,SBD,M,
Boys,67.13,2,Matthew Ortiz,Weslaco,64.95,142.88,83.91,129.27,356.07,Single-ply,SBD,M,
Boys,67.13,3,Joel Lopez,Weslaco,60.37,117.93,68.04,120.2,306.17,Single-ply,SBD,M,
Boys,74.84,1,Robert Gomez,Donna North,74.34,195.04,113.4,204.12,512.56,Single-ply,SBD,M,
Boys,82.1,1,Jesus Benavidez,Donna North,81.47,226.8,122.47,174.63,523.9,Single-ply,SBD,M,
Boys,82.1,2,Jose Chapa,Donna,79.92,192.78,106.59,188.24,487.61,Single-ply,SBD,M,
Boys,89.81,1,Joel Ramirez,Donna,87.95,238.14,127.01,229.06,594.21,Single-ply,SBD,M,
Boys,89.81,2,Caleb Anaya,Harlingen South,85.14,229.06,136.08,213.19,578.33,Single-ply,SBD,M,
Boys,89.81,3,Angel Sanchez #7,Donna North,89.49,206.38,120.2,,326.59,Single-ply,SB,M,
Boys,89.81,DQ,Joey Espinoza,Weslaco,83.46,124.74,,,,Single-ply,SBD,M,
Boys,89.81,DQ,Diego Zavala,Weslaco,88.45,183.7,97.52,,,Single-ply,SBD,M,
Boys,99.79,1,Javier Garcia,Donna North,98.47,249.48,138.35,242.67,630.49,Single-ply,SBD,M,
Boys,99.79,2,Omar Guerrero,Donna North,99.06,242.67,149.69,208.65,601.01,Single-ply,SBD,M,
Boys,99.79,3,Reno Villanueva,Harlingen South,95.12,199.58,124.74,195.04,519.36,Single-ply,SBD,M,
Boys,99.79,4,Gilbert Lerma,Harlingen South,94.35,204.12,127.01,,331.12,Single-ply,SB,M,
Boys,99.79,DQ,Caleb Torrez,Donna,94.76,,,,,Single-ply,SBD,M,
Boys,109.77,1,Ezra Echavarria,Harlingen South,108.59,231.33,136.08,206.38,573.79,Single-ply,SBD,M,
Boys,109.77,2,Saul Zamora,Donna,102.51,192.78,115.67,158.76,467.2,Single-ply,SBD,M,
Boys,109.77,DQ,Gabriel Ortiz,Donna,100.97,,,,,Single-ply,SBD,M,
Boys,124.74,1,Edgar Otero,Donna North,118.21,281.23,158.76,238.14,678.12,Single-ply,SBD,M,
Boys,124.74,2,Angel Rodriguez #14,Donna North,116.53,256.28,111.13,215.46,582.87,Single-ply,SBD,M,
Boys,124.74,3,Juan Meza,Donna,123.69,226.8,127.01,199.58,553.38,Single-ply,SBD,M,
Boys,124.74,4,Gus De La Cerda,Donna,114.85,226.8,122.47,199.58,548.85,Single-ply,SBD,M,
Boys,139.71,1,Isaiah Loya,Donna North,126.23,263.08,149.69,201.85,614.62,Single-ply,SBD,M,
Boys,139.71,2,Carlos Torres,Donna,125.28,251.74,120.2,219.99,591.94,Single-ply,SBD,M,
Boys,139.71,3,Montes Joaquin,Harlingen South,134.81,149.69,102.06,154.22,405.97,Single-ply,SBD,M,
