Division,WeightClassKg,Place,Name,Team,BodyweightKg,Best3SquatKg,Best3BenchKg,Best3DeadliftKg,TotalKg,Equipment,Event,Sex,BirthDate
Boys,51.71,1,Campbell Bargas,Amarillo Highland Park,51.62,111.13,65.77,129.27,306.17,Single-ply,SBD,M,
Boys,51.71,2,Christian Nas,Perryton,50.98,111.13,58.97,127.01,297.1,Single-ply,SBD,M,
Boys,51.71,3,Orlando Mendoza,Perryton,45.72,102.06,47.63,99.79,249.48,Single-ply,SBD,M,
Boys,55.79,1,Benjamin Perez,Amarillo Highland Park,53.52,115.67,79.38,138.35,333.39,Single-ply,SBD,M,
Boys,55.79,2,Seger Maples,Amarillo Highland Park,55.34,99.79,88.45,133.81,322.05,Single-ply,SBD,M,
Boys,59.87,1,Dominic Galvan,Amarillo Highland Park,59.33,142.88,86.18,170.1,399.16,Single-ply,SBD,M,
Boys,59.87,2,Isaac Alcala,Amarillo Highland Park,59.87,145.15,81.65,161.03,387.82,Single-ply,SBD,M,
Boys,67.13,1,Dustin Hoppe,Dalhart,64.41,131.54,83.91,138.35,353.8,Single-ply,SBD,M,
Boys,74.84,1,Feliciano Garcia,Amarillo Highland Park,73.84,174.63,95.25,213.19,483.08,Single-ply,SBD,M,
Boys,74.84,2,Alex Penton,Dalhart,74.66,181.44,95.25,181.44,458.13,Single-ply,SBD,M,
Boys,82.1,1,Jesse Butcher,Amarillo Highland Park,81.56,183.7,117.93,233.6,535.24,Single-ply,SBD,M,
Boys,82.1,2,Izaiah Vasquez,Perryton,81.56,210.92,133.81,183.7,528.44,Single-ply,SBD,M,
Boys,82.1,3,Daniel Sánchez,Amarillo Highland Park,81.65,158.76,113.4,192.78,464.93,Single-ply,SBD,M,
Boys,82.1,4,Thomas Tran,Amarillo Highland Park,81.01,158.76,102.06,174.63,435.45,Single-ply,SBD,M,
Boys,82.1,5,Joseph Gaines,Dalhart,77.29,124.74,86.18,136.08,347,Single-ply,SBD,M,
Boys,89.81,1,Kason Holt,Dalhart,88.45,235.87,127.01,215.46,578.33,Single-ply,SBD,M,
Boys,99.79,1,David Castro,Dalhart,95.71,201.85,129.27,199.58,530.7,Single-ply,SBD,M,
Boys,99.79,2,Jacob Raissez,Perryton,91.81,210.92,120.2,185.97,517.1,Single-ply,SBD,M,
Boys,99.79,3,Thadeus Blanco,Dalhart,92.08,174.63,106.59,174.63,455.86,Single-ply,SBD,M,
Boys,99.79,4,Matthew Burch,Amarillo Highland Park,97.34,149.69,108.86,176.9,435.45,Single-ply,SBD,M,
Boys,109.77,1,Jj Mandujano,Perryton,105.51,251.74,124.74,254.01,630.49,Single-ply,SBD,M,
Boys,109.77,2,Drew Fisher,Dalhart,107.5,170.1,117.93,154.22,442.25,Single-ply,SBD,M,
Boys,124.74,1,Cristian Salinas,Dalhart,110.22,219.99,138.35,185.97,544.31,Single-ply,SBD,M,
Boys,139.71+,1,Ben Turner,Dalhart,145.15,272.16,151.95,224.53,648.64,Single-ply,SBD,M,
